thielecpu/hardware/mu_alu_tb.vcd
$date
	Tue Dec  9 19:14:05 2025
$end
$version
	Icarus Verilog
$end
$timescale
	1ps
$end
$scope module mu_alu_tb $end
$var wire 32 ! result [31:0] $end
$var wire 1 " ready $end
$var wire 1 # overflow $end
$var reg 1 $ clk $end
$var reg 3 % op [2:0] $end
$var reg 32 & operand_a [31:0] $end
$var reg 32 ' operand_b [31:0] $end
$var reg 1 ( rst_n $end
$var reg 1 ) valid $end
$scope module uut $end
$var wire 1 $ clk $end
$var wire 3 * op [2:0] $end
$var wire 32 + operand_a [31:0] $end
$var wire 32 , operand_b [31:0] $end
$var wire 1 ( rst_n $end
$var wire 1 ) valid $end
$var parameter 3 - OP_ADD $end
$var parameter 3 . OP_DIV $end
$var parameter 3 / OP_INFO_GAIN $end
$var parameter 3 0 OP_LOG2 $end
$var parameter 3 1 OP_MUL $end
$var parameter 3 2 OP_SUB $end
$var parameter 32 3 Q16_MAX $end
$var parameter 32 4 Q16_MIN $end
$var parameter 32 5 Q16_ONE $end
$var parameter 32 6 Q16_SHIFT $end
$var reg 64 7 div_temp [63:0] $end
$var reg 32 8 frac_log [31:0] $end
$var reg 32 9 frac_part [31:0] $end
$var reg 6 : highest_bit [5:0] $end
$var reg 32 ; integer_log2 [31:0] $end
$var reg 6 < leading_zeros [5:0] $end
$var reg 32 = log2_input [31:0] $end
$var reg 8 > lut_index [7:0] $end
$var reg 64 ? mul_temp [63:0] $end
$var reg 32 @ normalized [31:0] $end
$var reg 1 # overflow $end
$var reg 1 " ready $end
$var reg 32 A result [31:0] $end
$var reg 32 B result_temp [31:0] $end
$var reg 32 C shift_amount [31:0] $end
$var reg 6 D state [5:0] $end
$var reg 32 E temp_result [31:0] $end
$upscope $end
$upscope $end
$enddefinitions $end
$comment Show the parameter values. $end
$dumpall
b10000 6
b10000000000000000 5
b10000000000000000000000000000000 4
b1111111111111111111111111111111 3
b1 2
b10 1
b100 0
b101 /
b11 .
b0 -
$end
#0
$dumpvars
bx E
b0 D
bx C
bx B
b0 A
bx @
bx ?
bx >
bx =
bx <
bx ;
bx :
bx 9
bx 8
bx 7
b0 ,
b0 +
b0 *
0)
0(
b0 '
b0 &
b0 %
0$
0#
0"
b0 !
$end
#5000
1$
#10000
0$
#15000
1$
#20000
0$
1(
#25000
1$
#30000
0$
1)
b10000000000000000 '
b10000000000000000 ,
b10000000000000000 &
b10000000000000000 +
#35000
1"
b100000000000000000 !
b100000000000000000 A
b100000000000000000 E
1$
#40000
0$
0)
#45000
1$
#50000
0$
1)
b11000000000000000 '
b11000000000000000 ,
b110000000000000000 &
b110000000000000000 +
b1 %
b1 *
#55000
b11000000000000000 !
b11000000000000000 A
1"
b11000000000000000 E
1$
#60000
0$
0)
#65000
1$
#70000
0$
1)
b110000000000000000 '
b110000000000000000 ,
b100000000000000000 &
b100000000000000000 +
b10 %
b10 *
#75000
b1100000000000000000 !
b1100000000000000000 A
1"
b1100000000000000000 E
b11000000000000000000000000000000000 ?
1$
#80000
0$
0)
#85000
1$
#90000
0$
1)
b100000000000000000 '
b100000000000000000 ,
b1100000000000000000 &
b1100000000000000000 +
b11 %
b11 *
#95000
b110000000000000000 !
b110000000000000000 A
1"
b110000000000000000 E
b110000000000000000 7
1$
#100000
0$
0)
#105000
1$
#110000
0$
1)
b0 '
b0 ,
b10000000000000000 &
b10000000000000000 +
#115000
1#
b0 !
b0 A
1"
1$
#120000
0$
0)
#125000
1$
#130000
0$
1)
b1 '
b1 ,
b100 &
b100 +
b101 %
b101 *
#135000
b1010 D
0#
0"
1$
#140000
0$
0)
#145000
b1011 D
b1000000000000000000 E
b1000000000000000000 7
1$
#150000
0$
#155000
b1100 D
b1000000000000000000 =
1$
#160000
0$
#165000
b10 D
1$
#170000
0$
#175000
b11 D
b0 <
1$
#180000
0$
#185000
b1 <
b10000000000000000000 E
1$
#190000
0$
#195000
b10 <
b100000000000000000000 E
1$
#200000
0$
#205000
b11 <
b1000000000000000000000 E
1$
#210000
0$
#215000
b100 <
b10000000000000000000000 E
1$
#220000
0$
#225000
b101 <
b100000000000000000000000 E
1$
#230000
0$
#235000
b110 <
b1000000000000000000000000 E
1$
#240000
0$
#245000
b111 <
b10000000000000000000000000 E
1$
#250000
0$
#255000
b1000 <
b100000000000000000000000000 E
1$
#260000
0$
#265000
b1001 <
b1000000000000000000000000000 E
1$
#270000
0$
#275000
b1010 <
b10000000000000000000000000000 E
1$
#280000
0$
#285000
b1011 <
b100000000000000000000000000000 E
1$
#290000
0$
#295000
b1100 <
b1000000000000000000000000000000 E
1$
#300000
0$
#305000
b1101 <
b10000000000000000000000000000000 E
1$
#310000
0$
#315000
b100 D
b10010 :
1$
#320000
0$
#325000
b101 D
b10 C
b10 ;
1$
#330000
0$
#335000
b110 D
b10000000000000000 @
1$
#340000
0$
#345000
b111 D
b0 9
1$
#350000
0$
#355000
b1000 D
b0 >
1$
#360000
0$
#365000
b1001 D
b0 8
1$
#370000
0$
#375000
b10100 D
b100000000000000000 B
1$
#380000
0$
#385000
b0 D
1"
b100000000000000000 !
b100000000000000000 A
1$
